{
  "actions": [],
  "allow_rename": 1,
  "autoname": "field:user",
  "creation": "2023-04-25 13:15:53.377444",
  "default_view": "List",
  "doctype": "DocType",
  "editable_grid": 1,
  "engine": "InnoDB",
  "field_order": ["user"],
  "fields": [
    {
      "fieldname": "user",
      "fieldtype": "Link",
      "label": "User",
      "options": "User",
      "unique": 1
    }
  ],
  "index_web_pages_for_search": 1,
  "links": [],
  "modified": "2023-06-05 21:21:25.217845",
  "modified_by": "Administrator",
  "module": "Tenant Management",
  "name": "Tenant User",
  "naming_rule": "By fieldname",
  "owner": "Administrator",
  "permissions": [
    {
      "create": 1,
      "delete": 1,
      "email": 1,
      "export": 1,
      "print": 1,
      "read": 1,
      "report": 1,
      "role": "System Manager",
      "share": 1,
      "write": 1
    }
  ],
  "sort_field": "modified",
  "sort_order": "DESC",
  "states": []
}
